HR Employee Attrition Analysis and Predictions
…
## # A tibble: 2 x 3
##      Result Number      Freq
##       <chr>  <int>     <dbl>
## 1   Correct     30 0.2941176
## 2 Incorrect     72 0.7058824

Next we can focus on individual customers and see which factors are driving the predictions, thus we can narrow down more specific insights on how to potentially change the outcome of them leaving.

For example, in case 4 we can see this employee is being predicted to leave based on the fact they are young, havent worked in many companies and have worked overtime. So, we could perhaps take extra care and put them on a career path or increase their Stock Option level.

## # A tibble: 221 x 2
##              No          Yes
##           <dbl>        <dbl>
##  1 5.510724e-05 9.999449e-01
##  2 9.998134e-01 1.865519e-04
##  3 9.976930e-01 2.307005e-03
##  4 4.189649e-08 1.000000e+00
##  5 9.311187e-01 6.888134e-02
##  6 9.189723e-01 8.102774e-02
##  7 5.481661e-02 9.451834e-01
##  8 9.999343e-01 6.573894e-05
##  9 9.999969e-01 3.051090e-06
## 10 9.989599e-01 1.040135e-03
## # ... with 211 more rows
…
